2-micron	6318
Mito	85779
chrI	230208
chrII	813178
chrIII	316617
chrIV	1531919
chrIX	439885
chrV	576869
chrVI	270148
chrVII	1090947
chrVIII	562643
chrX	745741
chrXI	666454
chrXII	1078175
chrXIII	924429
chrXIV	784334
chrXV	1091289
chrXVI	948062